<svg xmlns="http://www.w3.org/2000/svg" xmlns:xlink="http://www.w3.org/1999/xlink" width="26" height="26" viewBox="0 0 26 26">
  <defs>
    <clipPath id="clip-path">
      <rect id="Rectangle_3613" data-name="Rectangle 3613" width="26" height="26" transform="translate(1916 -160)" fill="#fff" stroke="#707070" stroke-width="1"/>
    </clipPath>
  </defs>
  <g id="work_1_white" transform="translate(-1916 160)" clip-path="url(#clip-path)">
    <g id="noun_Handshake_3720152" transform="translate(1912.99 -167.716)">
      <path id="Path_1026" data-name="Path 1026" d="M26.605,14.717a13.283,13.283,0,0,0-3.816.312,2.108,2.108,0,0,0-1.351,1.056,2.279,2.279,0,0,0-.114.286L17.2,14.73A1.9,1.9,0,0,0,16,14.651a5.2,5.2,0,0,0-1.8.907H10.366a2.08,2.08,0,0,0-1.479-1.483,10.58,10.58,0,0,0-3.481-.33.44.44,0,0,0-.4.44V22.5a.441.441,0,0,0,.44.44H6.9a2.107,2.107,0,0,0,1.712-.867,46.651,46.651,0,0,0,6.579,5.73,1.276,1.276,0,0,0,1.65-.132,1.249,1.249,0,0,0,.29-.453,1.412,1.412,0,0,0,1.5-.321,1.373,1.373,0,0,0,.348-.59,1.465,1.465,0,0,0,.5.092,1.445,1.445,0,0,0,.959-.365,1.489,1.489,0,0,0,.449-.757,1.364,1.364,0,0,0,.352.053,1.405,1.405,0,0,0,1.4-1.43,1.1,1.1,0,0,0-.031-.242,2.242,2.242,0,0,0,.775-.546,2.136,2.136,0,0,0,1.664.805H26.57a.441.441,0,0,0,.44-.44V15.157A.444.444,0,0,0,26.605,14.717ZM6.9,22.057H5.886V14.6a9.988,9.988,0,0,1,2.768.321,1.243,1.243,0,0,1,.854,1.562L8.091,21.168A1.236,1.236,0,0,1,6.9,22.057Zm14.7,2.236a.519.519,0,0,1-.731,0l-2.729-2.641a.439.439,0,0,0-.612.629l.929.9h0l1.408,1.364a.555.555,0,0,1,.172.418.563.563,0,0,1-.968.378l-.418-.436h0l-1.58-1.637h0l-.3-.308a.439.439,0,1,0-.629.612l1.884,1.945a.535.535,0,0,1-.761.753l-.414-.414-.8-.8h0l-.92-.911a.439.439,0,0,0-.621.621l1.716,1.716a.4.4,0,0,1,.119.282.383.383,0,0,1-.119.282.4.4,0,0,1-.515.04,44.689,44.689,0,0,1-6.7-5.893l1.347-4.449a2.475,2.475,0,0,0,.062-.3h2.834a8.352,8.352,0,0,0-.876,1.184,1.873,1.873,0,0,0,.075,2.359c.035.035.9.805,2.359-.136a.323.323,0,0,0,.084-.07,3.533,3.533,0,0,1,1.554-.951l5.14,4.709a.526.526,0,0,1,.013.757Zm.563-1.421-5.277-4.832a.433.433,0,0,0-.339-.114,4.078,4.078,0,0,0-2.262,1.215c-.827.519-1.232.207-1.241.2-.427-.387.075-1.237.079-1.245a5.326,5.326,0,0,1,3.1-2.583,1.067,1.067,0,0,1,.66.044l4.326,1.725a2.182,2.182,0,0,0,.114.555l1.628,4.423A1.575,1.575,0,0,1,22.16,22.871Zm3.97.158H25.043a1.255,1.255,0,0,1-1.171-.819l-1.725-4.687a1.265,1.265,0,0,1,.07-1.025,1.209,1.209,0,0,1,.788-.616,12.18,12.18,0,0,1,2.808-.312c.119,0,.229,0,.321,0V23.03Z" fill="#fff"/>
    </g>
  </g>
</svg>
